Product name,sku,attribute_set,website_id,store_view_code,product_type,categories,description,tax_class_name,visibility,price,meta_title,meta_keywords,meta_description,image1,image2,image3,image4,image5,additional_attributes,associated_skus,configure_attribute,,,,,
ELIA | Off White Leather congfig 1,1testconfig,Default,1,1,Configurable,Schoenen|Meisjes|Babyschoenen,test,Taxable Goods,"Catalog,Search",100,ELIA | Off White Leather,"Sweet and classic with a nostalgic twist! Thanks to the T-bar closure with a velcro fastening, the lovely Elia will stay on perfectly. The perfect shoes for your little one this summer! Delivered in a cute gift package!

• 100% premium leather
• Velcro fastening
• Handmade & fairtrade",Taxable Goods,1.jpg,2.jpg,3.jpg,4.jpg,5.jpg,,"test1simple,test2simple,test3simple, test4simple,test5simple","size_booties,size_schoentjes",,,,,"8719549080665"", ""8719549080672"", ""8719549080689"", ""8719549080696"", ""8719549125106"
ELIA | Off White Leather-0-6m simple 1 ,test1simple,Default,1,1,Simple,Schoenen|Meisjes|Babyschoenen,test1,Taxable Goods,Not Visible Individually,94,ELIA | Off White Leather-0-6m,"Sweet and classic with a nostalgic twist! Thanks to the T-bar closure with a velcro fastening, the lovely Elia will stay on perfectly. The perfect shoes for your little one this summer! Delivered in a cute gift package!

• 100% premium leather
• Velcro fastening
• Handmade & fairtrade",Taxable Goods,1.jpg,2.jpg,3.jpg,4.jpg,5.jpg,,,,,,,,
ELIA | Off White Leather-6-12m simple 1 ,test2simple,Default,1,1,Simple,Schoenen|Meisjes|Babyschoenen,test2,Taxable Goods,Not Visible Individually,94,ELIA | Off White Leather-6-12m,"Sweet and classic with a nostalgic twist! Thanks to the T-bar closure with a velcro fastening, the lovely Elia will stay on perfectly. The perfect shoes for your little one this summer! Delivered in a cute gift package!

• 100% premium leather
• Velcro fastening
• Handmade & fairtrade",Taxable Goods,1.jpg,2.jpg,3.jpg,4.jpg,5.jpg,,,,,,,,
ELIA | Off White Leather-12-18m simple 1 ,test3simple,Default,1,1,Simple,Schoenen|Meisjes|Babyschoenen,"Sweet and classic with a nostalgic twist! Thanks to the T-bar closure with a velcro fastening, the lovely Elia will stay on perfectly. The perfect shoes for your little one this summer! Delivered in a cute gift package!

• 100% premium leather
• Velcro fastening
• Handmade & fairtrade",Taxable Goods,Not Visible Individually,"49,00,000",,,,1.jpg,2.jpg,3.jpg,4.jpg,5.jpg,,,,,,,,
ELIA | Off White Leather-18-24m simple 1 ,test4simple,Default,1,1,Simple,Schoenen|Meisjes|Babyschoenen,test3,Taxable Goods,Not Visible Individually,94,ELIA | Off White Leather-18-24m,"Sweet and classic with a nostalgic twist! Thanks to the T-bar closure with a velcro fastening, the lovely Elia will stay on perfectly. The perfect shoes for your little one this summer! Delivered in a cute gift package!

• 100% premium leather
• Velcro fastening
• Handmade & fairtrade",Taxable Goods,1.jpg,2.jpg,3.jpg,4.jpg,5.jpg,,,,,,,,
ELIA | Off White Leather-24-30m,test5simple,Default,1,1,Simple,Schoenen|Meisjes|Babyschoenen,test4,Taxable Goods,Not Visible Individually,94,ELIA | Off White Leather-24-30m,"Sweet and classic with a nostalgic twist! Thanks to the T-bar closure with a velcro fastening, the lovely Elia will stay on perfectly. The perfect shoes for your little one this summer! Delivered in a cute gift package!

• 100% premium leather
• Velcro fastening
• Handmade & fairtrade",Taxable Goods,1.jpg,2.jpg,3.jpg,4.jpg,5.jpg,,,,,,,,
