Product name,sku,attribute_set,website_id,store_view_code,product_type,categories,description,tax_class_name,visibility,price,meta_title,meta_keywords,meta_description,image1,image2,image3,image4,image5,additional_attributes,associated_skus,configure_attribute,enable_store_id,qty,status,,
ELIA | Off White Leather,0716-LE060-00000,Default,1,,Configurable,Schoenen|Meisjes|Babyschoenen,ELIA | Off White Leather ELIAwhitec8,Taxable Goods,"Catalog,Search",49,ELIA | Off White Leather ELIAwhitec8,ELIA | Off White Leather ELIAwhitec8,ELIA | Off White Leather ELIAwhitec8,EliaOffwhiteLeather1.jpg,EliaOffwhiteLeather1.jpg,EliaOffwhiteLeather2.jpg,EliaOffwhiteLeather1.jpg,EliaOffwhiteLeather1.jpg,,"8719549080665"", ""8719549080672"", ""8719549080689"", ""8719549080696"", ""8719549125106","size_booties,size_schoentjes",,0,1,,"8719549080665"", ""8719549080672"", ""8719549080689"", ""8719549080696"", ""8719549125106"
ELIA | Off White Leather-0-6m,8.71955E+12,Default,1,,Simple,Schoenen|Meisjes|Babyschoenen,ELIA | Off White Leather-0-6m ELIAswhite8-1,Taxable Goods,Not Visible Individually,49,ELIA | Off White Leather-0-6m ELIAswhite8-1,ELIA | Off White Leather-0-6m ELIAswhite8-1,ELIA | Off White Leather-0-6m ELIAswhite8-1,EliaOffwhiteLeather1.jpg,EliaOffwhiteLeather1.jpg,EliaOffwhiteLeather2.jpg,EliaOffwhiteLeather1.jpg,EliaOffwhiteLeather1.jpg,"size_schoentjes=ABwdedS,size_booties=xyz",,,,150,1,,
ELIA | Off White Leather-6-12m,8.71955E+12,Default,1,,Simple,Schoenen|Meisjes|Babyschoenen,ELIA | Off White Leather-6-12m ELIAswhite8-2,Taxable Goods,Not Visible Individually,49,ELIA | Off White Leather-6-12m ELIAswhite8-2,ELIA | Off White Leather-6-12m ELIAswhite8-2,ELIA | Off White Leather-6-12m ELIAswhite8-2,EliaOffwhiteLeather1.jpg,EliaOffwhiteLeather1.jpg,EliaOffwhiteLeather2.jpg,EliaOffwhiteLeather1.jpg,EliaOffwhiteLeather1.jpg,"size_schoentjes=ABSe,size_booties=xyrzd",,,,250,2,,
ELIA | Off White Leather-12-18m,8.71955E+12,Default,1,,Simple,Schoenen|Meisjes|Babyschoenen,ELIA | Off White Leather-12-18m ELIAswhite8-3,Taxable Goods,Not Visible Individually,49,ELIA | Off White Leather-12-18m ELIAswhite8-3,ELIA | Off White Leather-12-18m ELIAswhite8-3,ELIA | Off White Leather-12-18m ELIAswhite8-3,EliaOffwhiteLeather1.jpg,EliaOffwhiteLeather1.jpg,EliaOffwhiteLeather2.jpg,EliaOffwhiteLeather1.jpg,EliaOffwhiteLeather1.jpg,"size_schoentjes=ABdS,size_booties=xyz",,,,350,2,,
ELIA | Off White Leather-18-24m,8.71955E+12,Default,1,,Simple,Schoenen|Meisjes|Babyschoenen,ELIA | Off White Leather-18-24m ELIAswhite8-4,Taxable Goods,Not Visible Individually,49,ELIA | Off White Leather-18-24m ELIAswhite8-4,ELIA | Off White Leather-18-24m ELIAswhite8-4,ELIA | Off White Leather-18-24m ELIAswhite8-4,EliaOffwhiteLeather1.jpg,EliaOffwhiteLeather1.jpg,EliaOffwhiteLeather2.jpg,EliaOffwhiteLeather1.jpg,EliaOffwhiteLeather1.jpg,"size_schoentjes=ABwdS,size_booties=xyrzd",,,,200,1,,
ELIA | Off White Leather-24-30m,8.71955E+12,Default,1,,Simple,Schoenen|Meisjes|Babyschoenen,ELIA | Off White Leather-24-30m ELIAswhite8-5,Taxable Goods,Not Visible Individually,49,ELIA | Off White Leather-24-30m ELIAswhite8-5,ELIA | Off White Leather-24-30m ELIAswhite8-5,ELIA | Off White Leather-24-30m ELIAswhite8-5,EliaOffwhiteLeather1.jpg,EliaOffwhiteLeather1.jpg,EliaOffwhiteLeather2.jpg,EliaOffwhiteLeather1.jpg,EliaOffwhiteLeather1.jpg,"size_schoentjes=ABwdedS,size_booties=xyrzd",,,,300,1,,